%YAML 1.1
%TAG !u! tag:unity3d.com,2011:
--- !u!1045 &1
EditorBuildSettings:
  m_ObjectHideFlags: 0
  serializedVersion: 2
  m_Scenes:
  - enabled: 1
    path: Assets/Scenes/Scenes/MainScene.unity
    guid: dbc457e6df4234749aff8bd5ffa028ef
  - enabled: 1
    path: Assets/Scenes/Scenes/GameScene.unity
    guid: e78cba18275be4441a9467ea64650238
  m_configObjects: {}
